Register_File/isim.log
ISim log file
Running: C:\Users\Rosswell\Documents\CPU\Register_File\Register_File_tb_isim_beh.exe -intstyle ise -gui -tclbatch isim.cmd -wdb C:/Users/Rosswell/Documents/CPU/Register_File/Register_File_tb_isim_beh.wdb 
ISim P.20131013 (signature 0x7708f090)
WARNING: A WEBPACK license was found.
WARNING: Please use Xilinx License Configuration Manager to check out a full ISim license.
WARNING: ISim will run in Lite mode. Please refer to the ISim documentation for more information on the differences between the Lite and the Full version.
This is a Lite version of ISim.
Time resolution is 1 ps
# onerror resume
# wave add /
# run 1000 ns
Simulator is doing circuit initialization process.
Finished circuit initialization process.
T=               35000, Radr = 0, R = 0000, S_Adr = 7  , S = 0000
T=               45000, Radr = 1, R = 0000, S_Adr = 6  , S = 0000
T=               55000, Radr = 2, R = 0000, S_Adr = 5  , S = 0000
T=               65000, Radr = 3, R = 0000, S_Adr = 4  , S = 0000
T=               75000, Radr = 4, R = 0000, S_Adr = 3  , S = 0000
T=               85000, Radr = 5, R = 0000, S_Adr = 2  , S = 0000
T=               95000, Radr = 6, R = 0000, S_Adr = 1  , S = 0000
T=              105000, Radr = 7, R = 0000, S_Adr = 0  , S = 0000
T=              195000, Radr = 0, R = ffff, S_Adr = 7  , S = fff8
T=              205000, Radr = 1, R = fffe, S_Adr = 6  , S = fff9
T=              215000, Radr = 2, R = fffd, S_Adr = 5  , S = fffa
T=              225000, Radr = 3, R = fffc, S_Adr = 4  , S = fffb
T=              235000, Radr = 4, R = fffb, S_Adr = 3  , S = fffc
T=              245000, Radr = 5, R = fffa, S_Adr = 2  , S = fffd
T=              255000, Radr = 6, R = fff9, S_Adr = 1  , S = fffe
T=              265000, Radr = 7, R = fff8, S_Adr = 0  , S = ffff
